<?xml version="1.0" encoding="UTF-8" standalone="no"?>
<!-- Created with Inkscape (http://www.inkscape.org/) -->

<svg
   xmlns:dc="http://purl.org/dc/elements/1.1/"
   xmlns:cc="http://creativecommons.org/ns#"
   xmlns:rdf="http://www.w3.org/1999/02/22-rdf-syntax-ns#"
   xmlns:svg="http://www.w3.org/2000/svg"
   xmlns="http://www.w3.org/2000/svg"
   version="1.1"
   width="600"
   height="540.84485"
   id="svg125676">
  <defs
     id="defs125678">
    <clipPath
       id="clipPath105563">
      <path
         d="m 343.085,243.797 0,-2.301 0.053,0 0,0.054 0.054,0 0,0.053 0.054,0 0,0.054 0.053,0 0,0.107 0.054,0 0,0.053 0.053,0 0,0.054 0.053,0 0,0.053 0.054,0 0,0.108 0.053,0 0,0.053 0.054,0 0,0.054 0.053,0 0,1.337 c -0.136,0.126 -0.338,0.207 -0.481,0.321 l 0,0 -0.107,0 z m -3.636,0 c -0.138,-0.27 -0.639,-0.771 -0.909,-0.91 l 0,0 c -0.039,-0.123 -0.081,-0.189 -0.161,-0.267 l 0,0 -0.053,0 c -0.153,0.298 -0.718,0.864 -1.016,1.016 l 0,0 c -0.008,0.156 -0.009,0.066 -0.053,0.161 l 0,0 -3.476,0 0,-6.153 3.529,0 0,1.659 0.054,0 c 0.144,-0.282 0.692,-0.695 0.962,-0.856 l 0,0 0.053,0 c 0.191,0.372 0.718,0.481 0.909,0.856 l 0,0 0.107,0 0,-1.659 0.589,0 0,1.499 0.053,0 0,1.23 -0.053,0 0,0.107 -0.107,0 0,0.053 -0.053,0 c -0.384,-0.215 -0.77,-0.448 -1.07,-0.749 l 0,0 -0.321,0 -0.107,0.107 c -0.055,0.137 -0.055,0.238 0,0.375 l 0,0 c 0.184,0.075 0.313,0.123 0.535,0.16 l 0,0 c 0.094,0.112 0.227,0.156 0.321,0.268 l 0,0 0.053,0 0,-0.054 0.053,0 0,0.107 c 0.215,0.079 0.343,0.171 0.536,0.268 l 0,0 c 0.057,0.163 0.056,0.098 0.053,0.375 l 0,0 0.107,0.106 c 0.124,-0.053 0.178,-0.035 0.16,0.054 l 0,0 0.053,0 0,-0.054 0.161,0 0,-0.053 0.107,0 c 0.248,0.131 0.618,0.333 0.748,0.589 l 0,0 c 0.126,-0.053 0.179,-0.036 0.161,0.053 l 0,0 0.054,0 c -0.018,-0.089 0.035,-0.106 0.16,-0.053 l 0,0 0.107,-0.108 c 0.055,-0.11 0.014,-0.077 0.053,-0.16 l 0,0 c -0.179,-0.091 -0.348,-0.256 -0.535,-0.374 l 0,0 c -0.178,-0.114 -0.432,-0.23 -0.587,-0.375 l 0,0 c 0,-1.154 -0.008,-2.281 0.107,-3.371 l 0,0 2.191,0 0,2.033 -0.106,0 c -0.121,-0.479 -0.269,-0.931 -0.428,-1.39 l 0,0 -0.107,-0.107 -0.375,0 -0.106,0.053 c -0.07,0.138 -0.003,0.085 -0.107,0.16 l 0,0 c 0,0.385 -0.284,0.697 -0.375,1.017 l 0,0 c -0.127,0.449 -0.32,0.757 -0.32,1.337 l 0,0 c 0.094,0.049 0.165,0.12 0.213,0.215 l 0,0 0.375,0 0.107,-0.108 c 0.078,-0.396 0.073,-0.942 0.213,-1.337 l 0,0 0.214,0 0,0.107 0.054,0 0,0.107 0.053,0 0,0.16 0.054,0 0,0.108 0.054,0 0,0.16 0.053,0 0,0.107 0.054,0 0,0.107 0.053,0 0,0.107 0.053,0 0,0.107 0.054,0 0,0.107 0.053,0 0,0.107 0.054,0 0,0.053 0.053,0 0,0.108 0.054,0 0,0.107 0.053,0 0,0.053 0.053,0 0,2.675 -3.475,0 z m -1.979,0 c 0.049,-0.094 0.12,-0.165 0.214,-0.214 l 0,0 c 0.102,-0.32 0.446,-0.417 0.589,-0.696 l 0,0 0.106,0 c 0.056,0.108 0.16,0.213 0.268,0.268 l 0,0 c 0.025,0.156 -0.007,0.145 -0.053,0.214 l 0,0 c -0.346,0.063 -0.755,0.248 -1.017,0.428 l 0,0 -0.107,0 z m 6.15,-2.728 0,-0.054 -0.054,0 0,-0.053 -0.053,0 0,-0.108 -0.054,0 0,-0.053 -0.053,0 0,-0.107 -0.053,0 0,-0.054 -0.054,0 0,-0.107 -0.053,0 0,-0.107 -0.054,0 0,-0.053 -0.054,0 0,-0.107 -0.053,0 0,-2.622 0.588,0 0,3.425 -0.053,0 z m -4.492,-2.141 c -0.153,-0.153 -0.379,-0.281 -0.481,-0.481 l 0,0 0.481,0 0,0.053 0.054,0 0,0.428 -0.054,0 z m -1.658,0 0,-1.284 0.536,0 0,0.91 c -0.228,0.049 -0.305,0.269 -0.482,0.374 l 0,0 -0.054,0 z m 6.256,-1.017 0,-0.053 0.054,0 0,-0.214 0.428,0 0,0.267 -0.482,0 z m -9.838,-0.641 0,-0.053 -0.053,0 0,-0.108 -0.054,0 0,-2.514 0.054,0 0,-0.107 0.053,0 0,-0.054 9.678,0 0,0.054 0.054,0 0,0.053 0.053,0 0,2.622 -0.053,0 0,0.054 -0.054,0 0,0.053 -9.678,0 z"
         id="path105565" />
    </clipPath>
  </defs>
  <metadata
     id="metadata125681">
    <rdf:RDF>
      <cc:Work
         rdf:about="">
        <dc:format>image/svg+xml</dc:format>
        <dc:type
           rdf:resource="http://purl.org/dc/dcmitype/StillImage" />
        <dc:title></dc:title>
      </cc:Work>
    </rdf:RDF>
  </metadata>
  <g
     id="g3068">
    <g
       transform="matrix(57.950355,0,0,-57.950355,403.16062,353.09152)"
       id="g105569"
       style="fill:#ffffff">
      <path
         d="m 0,0 c -0.018,0.152 -0.04,0.371 -0.04,0.565 0,0.119 0.016,0.601 0.016,0.989 0,0.328 -0.07,0.909 -0.07,1.226 0,0.19 0.014,0.448 -0.007,0.538 C 0.05,3.417 0.183,3.48 0.601,3.732 0.736,3.814 0.995,3.953 0.995,4.12 0.995,4.194 0.975,4.242 0.87,4.328 0.796,4.387 0.717,4.404 0.628,4.404 0.415,4.404 0.319,4.191 0.14,4.081 -0.132,3.915 -0.276,3.833 -0.332,3.802 c -0.023,0.01 -0.115,0.065 -0.264,0.065 -0.156,0 -0.337,-0.07 -0.337,-0.272 0,-0.093 0.029,-0.194 -0.095,-0.259 C -1.097,3.292 -1.436,3.099 -1.797,2.881 -2.101,2.698 -2.242,2.712 -2.371,2.635 -2.489,2.564 -2.52,2.475 -2.52,2.397 c 0,-0.068 0.043,-0.155 0.058,-0.174 0.082,-0.104 0.155,-0.161 0.284,-0.161 0.218,0 0.399,0.19 0.736,0.43 0.209,0.149 0.402,0.304 0.515,0.304 0.1,0 0.17,-0.076 0.17,-0.388 0,-1.045 -0.063,-1.211 -0.063,-1.936 0,-0.13 0.005,-0.372 0.009,-0.472 l -0.554,0 0,1.712 -1.067,-0.899 -1.067,0.899 0,-1.712 -3.458,0 0,6.093 3.367,0 1.158,-1.219 1.159,1.219 3.383,0 0,-2.605 C 2.003,3.323 1.676,2.763 1.456,2.191 1.384,2.004 1.351,1.869 1.256,1.869 1.152,1.869 1.143,1.972 1.133,2.064 1.112,2.264 1.067,2.638 1.046,2.776 1.006,3.043 0.953,3.325 0.656,3.325 0.435,3.325 0.204,3.204 0.204,2.874 0.204,2.688 0.299,2.363 0.46,1.936 0.524,1.768 0.863,0.879 0.912,0.751 1.001,0.515 1.126,0.45 1.319,0.45 1.567,0.45 1.653,0.541 1.754,0.889 1.841,1.185 1.988,1.668 2.11,1.97 L 2.11,0 0,0 z m 2.903,3.382 0,-3.382 -0.557,0 0,2.474 c 0.119,0.258 0.406,0.709 0.557,0.908 m -0.557,0.451 0,2.26 0.557,-0.334 0,-1.238 C 2.766,4.378 2.48,4.031 2.346,3.833 m -4.471,1.706 -0.307,-0.323 -0.83,0.873 1.053,-0.463 0.084,-0.087 z m 0.037,-4.745 0.384,0 0.103,0.087 0,0.323 -0.487,-0.41 z M -3.263,0 l 0.458,0 0,0.819 -0.458,0.386 0,-1.205"
         id="path105571"
         style="fill:#ffffff;fill-opacity:1;fill-rule:nonzero;stroke:none" />
    </g>
    <g
       transform="matrix(57.950355,0,0,-57.950355,575.15728,340.43516)"
       id="g105573"
       style="fill:#ffffff">
      <path
         d="m 0,0 0.177,0 0,-0.033 -0.07,0 0,-0.186 -0.038,0 0,0.186 L 0,-0.033 0,0 z"
         id="path105575"
         style="fill:#ffffff;fill-opacity:1;fill-rule:nonzero;stroke:none" />
    </g>
    <g
       transform="matrix(57.950355,0,0,-57.950355,586.84529,340.43516)"
       id="g105577"
       style="fill:#ffffff">
      <path
         d="m 0,0 0.054,0 0.06,-0.171 0.001,0 0.059,0.171 0.053,0 0,-0.219 -0.036,0 0,0.169 -0.001,0 -0.061,-0.169 -0.031,0 -0.061,0.169 -0.001,0 0,-0.169 L 0,-0.219 0,0 z"
         id="path105579"
         style="fill:#ffffff;fill-opacity:1;fill-rule:nonzero;stroke:none" />
    </g>
    <g
       transform="matrix(57.950355,0,0,-57.950355,571.39051,524.50287)"
       id="g105581">
      <path
         d="m 0,0 c 0,-0.155 -0.127,-0.282 -0.282,-0.282 l -9.296,0 c -0.155,0 -0.282,0.127 -0.282,0.282 l 0,2.254 c 0,0.155 0.127,0.281 0.282,0.281 l 9.296,0 C -0.127,2.535 0,2.409 0,2.254 L 0,0"
         id="path105583"
         style="fill:#ec008c;fill-opacity:1;fill-rule:nonzero;stroke:none" />
    </g>
    <g
       transform="matrix(57.950355,0,0,-57.950355,218.48443,502.68457)"
       id="g105585">
      <path
         d="m 0,0 c -0.02,-0.02 -0.044,-0.029 -0.072,-0.029 l -0.034,0 c -0.029,0 -0.052,0.009 -0.072,0.029 -0.02,0.02 -0.029,0.044 -0.029,0.072 l 0,0.53 c 0,0.018 -0.007,0.033 -0.02,0.045 -0.012,0.012 -0.028,0.018 -0.046,0.018 l -0.261,0 c -0.017,0 -0.032,-0.006 -0.045,-0.018 -0.014,-0.012 -0.02,-0.027 -0.02,-0.045 l 0,-0.53 C -0.599,0.044 -0.609,0.02 -0.628,0 -0.646,-0.02 -0.67,-0.029 -0.699,-0.029 l -0.036,0 c -0.028,0 -0.052,0.009 -0.072,0.029 -0.019,0.02 -0.029,0.044 -0.029,0.072 l 0,1.357 c 0,0.028 0.01,0.052 0.029,0.072 0.02,0.02 0.044,0.029 0.072,0.029 l 0.036,0 c 0.029,0 0.053,-0.009 0.071,-0.029 0.019,-0.02 0.029,-0.044 0.029,-0.072 l 0,-0.496 c 0,-0.018 0.006,-0.033 0.02,-0.046 0.013,-0.013 0.028,-0.019 0.045,-0.019 l 0.261,0 c 0.018,0 0.034,0.006 0.046,0.019 0.013,0.013 0.02,0.028 0.02,0.046 l 0,0.496 c 0,0.028 0.009,0.052 0.029,0.072 0.02,0.02 0.043,0.029 0.072,0.029 l 0.034,0 C -0.044,1.53 -0.02,1.521 0,1.501 0.02,1.481 0.029,1.457 0.029,1.429 l 0,-1.357 C 0.029,0.044 0.02,0.02 0,0"
         id="path105587"
         style="fill:#140a08;fill-opacity:1;fill-rule:nonzero;stroke:none" />
    </g>
    <g
       transform="matrix(57.950355,0,0,-57.950355,260.99044,502.68457)"
       id="g105589">
      <path
         d="m 0,0 c -0.019,-0.02 -0.043,-0.029 -0.071,-0.029 l -0.036,0 c -0.029,0 -0.053,0.009 -0.072,0.029 -0.02,0.02 -0.029,0.044 -0.029,0.072 l 0,1.357 c 0,0.028 0.009,0.052 0.029,0.072 0.019,0.02 0.043,0.029 0.072,0.029 l 0.036,0 C -0.043,1.53 -0.019,1.521 0,1.501 0.019,1.481 0.028,1.457 0.028,1.429 l 0,-1.357 C 0.028,0.044 0.019,0.02 0,0"
         id="path105591"
         style="fill:#140a08;fill-opacity:1;fill-rule:nonzero;stroke:none" />
    </g>
    <g
       transform="matrix(57.950355,0,0,-57.950355,330.39179,424.7819)"
       id="g105593">
      <path
         d="m 0,0 c -0.02,-0.019 -0.044,-0.028 -0.072,-0.028 l -0.171,0 c -0.012,0 -0.023,-0.005 -0.032,-0.014 -0.009,-0.009 -0.013,-0.019 -0.013,-0.031 l 0,-1.199 c 0,-0.029 -0.01,-0.053 -0.029,-0.072 -0.02,-0.02 -0.044,-0.03 -0.072,-0.03 l -0.036,0 c -0.028,0 -0.052,0.01 -0.071,0.03 -0.019,0.019 -0.029,0.043 -0.029,0.072 l 0,1.199 c 0,0.012 -0.005,0.022 -0.013,0.031 -0.01,0.009 -0.02,0.014 -0.032,0.014 l -0.171,0 c -0.029,0 -0.053,0.009 -0.072,0.028 -0.02,0.019 -0.03,0.043 -0.03,0.073 l 0,0.011 c 0,0.029 0.01,0.053 0.03,0.073 0.019,0.019 0.043,0.029 0.072,0.029 l 0.669,0 C -0.044,0.186 -0.02,0.176 0,0.157 0.02,0.137 0.029,0.113 0.029,0.084 l 0,-0.011 C 0.029,0.043 0.02,0.019 0,0"
         id="path105595"
         style="fill:#140a08;fill-opacity:1;fill-rule:nonzero;stroke:none" />
    </g>
    <g
       transform="matrix(57.950355,0,0,-57.950355,384.00223,471.34502)"
       id="g105597">
      <path
         d="m 0,0 c -0.011,0.01 -0.023,0.02 -0.037,0.029 -0.014,0.009 -0.041,0.024 -0.08,0.045 L -0.284,0.165 C -0.329,0.19 -0.36,0.208 -0.377,0.219 -0.395,0.229 -0.41,0.24 -0.424,0.252 c -0.048,0.041 -0.085,0.09 -0.111,0.147 -0.027,0.057 -0.04,0.117 -0.04,0.18 0,0.062 0.012,0.119 0.036,0.173 0.024,0.053 0.057,0.099 0.097,0.139 0.041,0.04 0.088,0.071 0.141,0.094 0.053,0.022 0.109,0.034 0.168,0.034 0.053,0 0.099,-0.007 0.14,-0.02 C 0.047,0.987 0.085,0.971 0.119,0.953 0.143,0.941 0.161,0.932 0.173,0.924 0.186,0.917 0.2,0.907 0.216,0.897 0.239,0.882 0.254,0.867 0.263,0.852 0.271,0.837 0.275,0.821 0.275,0.805 0.275,0.787 0.268,0.766 0.255,0.744 L 0.248,0.732 C 0.225,0.698 0.196,0.681 0.16,0.681 0.137,0.681 0.118,0.686 0.101,0.696 0.094,0.701 0.081,0.709 0.064,0.721 0.047,0.733 0.026,0.747 0.002,0.762 -0.019,0.775 -0.04,0.786 -0.061,0.793 -0.082,0.801 -0.106,0.805 -0.133,0.805 -0.161,0.805 -0.189,0.799 -0.214,0.787 -0.24,0.775 -0.262,0.759 -0.281,0.739 -0.299,0.72 -0.314,0.696 -0.326,0.669 -0.337,0.642 -0.343,0.614 -0.343,0.586 c 0,-0.03 0.007,-0.057 0.02,-0.082 0.012,-0.025 0.029,-0.048 0.05,-0.069 0.006,-0.006 0.015,-0.013 0.027,-0.021 0.012,-0.009 0.038,-0.023 0.077,-0.044 L -0.016,0.286 C 0.029,0.261 0.063,0.241 0.086,0.228 0.108,0.214 0.126,0.201 0.14,0.189 0.189,0.147 0.228,0.097 0.257,0.037 0.285,-0.022 0.3,-0.086 0.3,-0.153 0.3,-0.216 0.287,-0.275 0.263,-0.33 0.238,-0.385 0.205,-0.432 0.163,-0.472 0.122,-0.512 0.074,-0.543 0.019,-0.566 c -0.055,-0.022 -0.112,-0.033 -0.172,-0.033 -0.053,0 -0.099,0.006 -0.14,0.019 -0.041,0.012 -0.078,0.028 -0.113,0.046 -0.024,0.012 -0.042,0.022 -0.054,0.029 -0.012,0.008 -0.026,0.017 -0.043,0.027 -0.022,0.015 -0.038,0.03 -0.046,0.045 -0.008,0.015 -0.012,0.031 -0.012,0.048 0,0.018 0.007,0.038 0.02,0.061 l 0.007,0.011 c 0.022,0.034 0.052,0.052 0.088,0.052 0.022,0 0.042,-0.006 0.058,-0.016 l 0.1,-0.065 c 0.021,-0.014 0.042,-0.025 0.063,-0.032 0.021,-0.008 0.045,-0.011 0.072,-0.011 0.03,0 0.058,0.006 0.085,0.018 0.027,0.012 0.051,0.028 0.071,0.048 0.021,0.02 0.036,0.044 0.048,0.072 0.011,0.028 0.017,0.057 0.017,0.087 C 0.068,-0.098 0.045,-0.045 0,0"
         id="path105599"
         style="fill:#140a08;fill-opacity:1;fill-rule:nonzero;stroke:none" />
    </g>
  </g>
</svg>
