<?xml version="1.0" encoding="UTF-8" standalone="no"?>
<!-- Created with Inkscape (http://www.inkscape.org/) -->

<svg
   xmlns:dc="http://purl.org/dc/elements/1.1/"
   xmlns:cc="http://creativecommons.org/ns#"
   xmlns:rdf="http://www.w3.org/1999/02/22-rdf-syntax-ns#"
   xmlns:svg="http://www.w3.org/2000/svg"
   xmlns="http://www.w3.org/2000/svg"
   version="1.0"
   width="500"
   height="250"
   id="svg2">
  <metadata
     id="metadata15">
    <rdf:RDF>
      <cc:Work
         rdf:about="">
        <dc:format>image/svg+xml</dc:format>
        <dc:type
           rdf:resource="http://purl.org/dc/dcmitype/StillImage" />
        <dc:title></dc:title>
      </cc:Work>
    </rdf:RDF>
  </metadata>
  <defs
     id="defs13" />
  <g
     transform="translate(-537.61534,-725.41898)"
     id="layer1">
    <path
       d="m 1037.6153,975.41899 -499.99996,0 0,-250.00001 499.99996,0 0,250.00001 z"
       id="path18330"
       style="fill:#d62c3b;fill-rule:nonzero;stroke:none" />
    <path
       d="m 638.63905,941.68669 -23.88008,-51.18535 -0.19243,0 -2.52078,43.19966 c -0.28864,4.90687 3.27124,5.96521 7.48538,6.15764 l 0,1.82805 -19.47353,0 0,-1.82805 c 6.83113,0 7.67781,-1.53941 8.13963,-10.27555 l 2.25138,-37.36915 c 0.36561,-6.33082 0.19243,-8.06266 -5.61884,-8.44751 l 0,-1.73184 14.14332,0 22.57158,48.41441 22.45613,-48.41441 13.77771,0 0,1.73184 c -4.59898,0.38485 -6.3693,0.48106 -6.17688,3.75231 l 2.98261,43.50754 c 0.57727,8.83236 1.32774,8.83236 8.13962,8.83236 l 0,1.82805 -24.05326,0 0,-1.82805 c 4.38731,0 8.7169,-1.25077 8.33205,-6.35006 l -2.73245,-43.00724 -0.17319,0 -23.3028,51.18535 -2.15517,0"
       id="path18332"
       style="fill:#ffffff;fill-rule:nonzero;stroke:none" />
    <path
       d="m 761.48388,881.18792 0,1.82805 c -6.27309,0.0962 -8.52448,2.69396 -8.52448,8.8516 l 0,25.9198 c 0,11.91117 -7.38916,24.68827 -27.70936,24.68827 -17.87638,0 -27.05511,-10.48723 -27.05511,-24.20721 l 0,-28.03648 c 0,-6.15764 -1.69335,-7.11977 -8.06265,-7.21598 l 0,-1.82805 24.05326,0 0,1.82805 -0.82743,0 c -5.13778,0 -7.40841,1.44319 -7.40841,7.02355 l 0,26.6895 c 0,12.96952 7.40841,20.74354 21.3593,20.74354 10.58344,0 21.3593,-4.52202 21.3593,-20.83975 l 0,-22.37916 c 0,-9.21721 -1.42395,-10.85283 -9.17873,-11.23768 l 0,-1.82805 21.99431,0"
       id="path18334"
       style="fill:#ffffff;fill-rule:nonzero;stroke:none" />
    <path
       d="m 778.91768,866.08247 c 1.98199,8.54372 8.52448,13.52756 15.83667,13.52756 6.25385,0 12.89255,-3.73307 12.89255,-11.3339 0,-13.83544 -30.03771,-18.04957 -30.03771,-34.84837 0,-7.98568 7.11976,-13.93165 16.6641,-13.93165 7.87022,0 9.46736,2.40532 12.7386,2.40532 0.73122,0 1.11608,-0.19242 1.69335,-0.96213 l 1.50093,0 1.57789,12.19982 -1.57789,0 c -2.63624,-6.9081 -8.62069,-11.3339 -15.08621,-11.3339 -6.17688,0 -10.48722,3.63686 -10.48722,9.02479 0,13.64301 30.05696,17.27986 30.05696,34.94458 0,9.40963 -8.13963,16.43319 -19.08867,16.43319 -5.17627,0 -11.71875,-2.59775 -13.04649,-2.59775 -0.82744,0 -1.48168,0.48106 -1.84729,1.05834 l -1.59714,0 -1.96275,-14.5859 1.77032,0"
       id="path18336"
       style="fill:#ffffff;fill-rule:nonzero;stroke:none" />
    <path
       d="m 851.25066,881.4958 -22.72553,0 0,-1.8088 c 5.79203,-0.28864 7.00431,-1.8473 7.00431,-8.27433 l 0,-40.90979 c 0,-5.17626 -1.78956,-6.61946 -7.00431,-6.9081 l 0,-1.82804 22.72553,0 0,1.82804 c -5.88824,0 -7.9472,1.34699 -7.9472,7.77402 l 0,40.71736 c 0,5.65733 1.50092,7.60084 7.9472,7.60084 l 0,1.8088"
       id="path18338"
       style="fill:#ffffff;fill-rule:nonzero;stroke:none" />
    <path
       d="m 893.73834,761.63358 c -16.49091,0 -23.05265,15.74045 -23.05265,27.24753 0,17.9726 11.89194,30.53803 26.9589,30.53803 15.25939,0 22.57159,-13.71998 22.57159,-27.34375 0,-17.85715 -11.04526,-30.44181 -26.47784,-30.44181 m 36.67642,78.16348 c -1.48168,0.38486 -2.69397,0.57728 -4.2911,0.57728 -14.70136,0 -21.24385,-13.73922 -33.23199,-18.53063 -17.81866,-1.25077 -30.99985,-13.45059 -30.99985,-30.36484 0,-18.33821 14.70136,-32.25062 33.90548,-32.25062 18.06881,0 33.23199,11.98815 33.23199,29.96075 0,14.87453 -9.65979,27.94027 -25.01539,31.78879 l 0,0.17318 c 10.85283,4.13716 16.29849,16.33698 27.92103,16.62562 l -1.52017,2.02047"
       id="path18340"
       style="fill:#ffffff;fill-rule:nonzero;stroke:none" />
    <path
       d="m 950.54253,788.82339 c 7.75477,-6.61946 12.71937,-11.43011 12.71937,-16.70259 0,-4.90687 -4.02171,-8.83236 -9.06327,-8.83236 -4.77217,0 -9.83298,3.73307 -12.46922,9.40964 l -1.6741,-0.69274 c 3.17503,-8.35129 9.92918,-13.62376 17.31835,-13.62376 6.92734,0 12.18057,4.59898 12.18057,10.6604 0,4.88763 -3.46367,9.79449 -9.64055,13.52756 l 0.17319,0.19242 c 8.62069,-0.86591 15.0862,6.81189 15.0862,15.64425 0,11.91117 -11.16071,22.49461 -23.70689,22.49461 -7.58159,0 -14.12408,-3.17503 -14.12408,-6.81189 0,-1.73183 1.40471,-3.27124 2.88639,-3.27124 4.23338,0 7.69705,7.48538 14.43196,7.48538 7.31219,0 13.48907,-7.98569 13.48907,-17.39532 0,-7.48538 -4.40656,-13.33513 -10.21783,-13.33513 -2.25138,0 -4.38731,0.86591 -6.56173,2.59775 l -0.82743,-1.34698"
       id="path18342"
       style="fill:#ffffff;fill-rule:nonzero;stroke:none" />
  </g>
</svg>
