<?xml version="1.0" encoding="UTF-8" standalone="no"?>
<!-- Created with Inkscape (http://www.inkscape.org/) -->

<svg
   xmlns:dc="http://purl.org/dc/elements/1.1/"
   xmlns:cc="http://creativecommons.org/ns#"
   xmlns:rdf="http://www.w3.org/1999/02/22-rdf-syntax-ns#"
   xmlns:svg="http://www.w3.org/2000/svg"
   xmlns="http://www.w3.org/2000/svg"
   xmlns:xlink="http://www.w3.org/1999/xlink"
   version="1.1"
   width="1000"
   height="640.45654"
   id="svg2">
  <defs
     id="defs4">
    <linearGradient
       id="linearGradient3006">
      <stop
         id="stop3008"
         style="stop-color:#6b1921;stop-opacity:1"
         offset="0" />
      <stop
         id="stop3020"
         style="stop-color:#8f222b;stop-opacity:1"
         offset="0.27209637" />
      <stop
         id="stop3018"
         style="stop-color:#a82931;stop-opacity:1"
         offset="0.49324587" />
      <stop
         id="stop3016"
         style="stop-color:#b52c33;stop-opacity:1"
         offset="0.63351089" />
      <stop
         id="stop3014"
         style="stop-color:#bb2f35;stop-opacity:1"
         offset="0.75603271" />
      <stop
         id="stop3010"
         style="stop-color:#d33d3e;stop-opacity:1"
         offset="1" />
    </linearGradient>
    <linearGradient
       x1="123.43934"
       y1="634.92993"
       x2="412.72086"
       y2="286.28445"
       id="linearGradient3012"
       xlink:href="#linearGradient3006"
       gradientUnits="userSpaceOnUse"
       gradientTransform="matrix(2.4130435,0,0,2.4130435,-170.97826,-900.63859)" />
  </defs>
  <metadata
     id="metadata7">
    <rdf:RDF>
      <cc:Work
         rdf:about="">
        <dc:format>image/svg+xml</dc:format>
        <dc:type
           rdf:resource="http://purl.org/dc/dcmitype/StillImage" />
        <dc:title></dc:title>
      </cc:Work>
    </rdf:RDF>
  </metadata>
  <g
     transform="translate(-120.5,2.5815217)"
     id="layer1">
    <path
       d="m 121,-2.0815217 0,639.4565217 278.32948,0 c 153.29677,0 224.9409,-83.3631 224.9409,-190.3288 0,-119.40473 -106.77717,-153.5299 -106.77717,-153.5299 0,0 74.3519,-32.2392 74.3519,-125.85529 0,-94.202182 -75.1178,-169.7425317 -207.82337,-169.7425317 l -263.02174,0 z m 534.48913,0 0,639.4565217 464.51087,0 0,-178.56522 -255.78261,0 0,-67.56521 188.21741,0 0,-147.19566 -188.21741,0 0,-67.56521 255.78261,0 0,-178.5652217 -464.51087,0 z M 341.49185,140.28804 c 88.3572,0 129.24864,62.18696 129.24864,114.9212 0,35.52579 -16.33647,66.87513 -48.26087,93.27921 -27.48107,23.67543 -97.20041,69.29959 -97.20041,69.29959 l 145.61209,0 0,78.42392 -259.40217,0 0,-78.42392 148.32677,-121.18002 c 10.71982,-9.78048 22.47146,-24.65911 22.47146,-42.6053 0,-22.04021 -17.26011,-39.13655 -43.35937,-39.13655 -33.19175,0 -46.43719,27.32241 -53.08696,47.5822 l -78.19769,-20.88791 c 15.76367,-53.53783 56.73775,-101.27242 133.84851,-101.27242 z"
       id="path2998"
       style="fill:url(#linearGradient3012);fill-opacity:1;stroke:none" />
  </g>
</svg>
