<?xml version="1.0" encoding="UTF-8" standalone="no"?>
<svg
    xmlns:cc="http://creativecommons.org/ns#"
    xmlns:rdf="http://www.w3.org/1999/02/22-rdf-syntax-ns#"
    xmlns:svg="http://www.w3.org/2000/svg"
    xmlns="http://www.w3.org/2000/svg"
    width="315" height="220">
  <g>
    <g transform="translate(-2.790343,-0.0896235)">
      <path style="fill:#f0362f"
            d="M 10.078,99.156 99.25,9.98 c 7.035,-7.031 18.465,-7.031 25.531,0 l 89.508,89.176 c 7.059,7.035 7.078,18.438 0.047,25.48 l -89.18,89.168 c -7.027,7.031 -18.457,7.031 -25.516,0 L 10.128,124.636 c -7.066,-7.042 -7.085,-18.445 -0.05,-25.48"/>
      <path style="fill:#ffffff"
            d="m 112.211,57.051 c -7.941,0 -14.297,6.492 -14.297,14.395 v 80.891 c 0,7.914 6.355,14.41 14.297,14.41 7.926,0 14.281,-6.496 14.281,-14.41 V 71.445 c 0,-7.902 -6.355,-14.394 -14.281,-14.394"/>
    </g>
    <g transform="translate(-1031.693773,-365.5316785)">
      <path style="fill:#f0362f;fill-opacity:1;stroke:none"
            d="m 1221.6582,367.74204 18.223,0 -1.4417,20.63665 19.9126,0 1.4417,-20.63665 18.3034,0 -4.12,58.97335 -18.3034,0 1.6665,-23.85484 -19.9126,0 -1.6665,23.85484 -18.223,0 z"/>
      <path style="fill:#f0362f;fill-opacity:1;stroke:none"
            d="m 1291.5399,367.74204 27.073,0 c 5.3368,6e-5 9.5973,0.72415 12.7814,2.17228 3.184,1.44824 5.7542,3.52665 7.7104,6.23524 1.9563,2.70869 3.2915,5.85984 4.006,9.45344 0.7143,3.59368 0.931,7.40187 0.6499,11.42458 -0.4402,6.30231 -1.4991,11.18994 -3.1764,14.66288 -1.6776,3.47298 -3.872,6.38276 -6.5837,8.72935 -2.7118,2.3466 -5.5562,3.90876 -8.5338,4.68649 -4.0708,1.07273 -7.7288,1.60909 -10.9738,1.60909 l -27.073,0 z m 17.29,13.35549 -2.2512,32.22214 4.4652,0 c 3.8082,2e-5 6.5463,-0.42237 8.2146,-1.26716 1.668,-0.84476 3.0315,-2.31976 4.0905,-4.42501 1.0588,-2.10522 1.7531,-5.51784 2.083,-10.23787 0.4364,-6.24862 -0.2839,-10.52613 -2.1608,-12.83254 -1.8771,-2.30633 -5.1756,-3.45951 -9.8956,-3.45956 z"/>
    </g>
  </g>
</svg>
