<?xml version="1.0" encoding="UTF-8" standalone="no"?>
<!-- Created with Inkscape (http://www.inkscape.org/) -->

<svg
   xmlns:dc="http://purl.org/dc/elements/1.1/"
   xmlns:cc="http://creativecommons.org/ns#"
   xmlns:rdf="http://www.w3.org/1999/02/22-rdf-syntax-ns#"
   xmlns:svg="http://www.w3.org/2000/svg"
   xmlns="http://www.w3.org/2000/svg"
   xmlns:xlink="http://www.w3.org/1999/xlink"
   version="1.0"
   width="600"
   height="736.08844"
   viewBox="0 0 599.99999 736.08842"
   id="svg2"
   xml:space="preserve"><metadata
     id="metadata44"><rdf:RDF><cc:Work
         rdf:about=""><dc:format>image/svg+xml</dc:format><dc:type
           rdf:resource="http://purl.org/dc/dcmitype/StillImage" /><dc:title></dc:title></cc:Work></rdf:RDF></metadata><defs
     id="defs42" /><g
     transform="translate(221.53653,269.02072)"
     id="Layer_2" /><g
     transform="translate(221.53653,269.02072)"
     id="Layer_1"><g
       id="g3959"><g
         id="g3951" /><g
         transform="matrix(4.1325728,0,0,4.1325728,-251.11644,-315.87298)"
         id="g8"><defs
           id="defs10"><rect
             width="142.189"
             height="151.657"
             x="8.25"
             y="12.446"
             id="SVGID_1_" /></defs><clipPath
           id="SVGID_2_"><use
             id="use14"
             style="overflow:visible"
             x="0"
             y="0"
             width="160"
             height="200"
             xlink:href="#SVGID_1_" /></clipPath></g><g
         transform="translate(-2.0177332,0)"
         id="g3938"
         style="fill:#9e1618;fill-opacity:0.99215686"><path
           d="m -190.04941,427.20494 c 4.77725,0 8.27754,-2.182 8.27754,-8.18663 0,-6.47988 -6.63278,-7.31879 -10.99264,-7.31879 h -5.85999 v 15.50542 h 8.57509 z m -29.15117,37.99487 v -69.82395 h 30.28763 c 18.08413,0 26.79147,9.19084 26.79147,23.5474 0,15.06736 -8.02133,24.55575 -26.10133,24.55575 h -10.39756 v 21.71667 h -20.58021 z"
           id="path18"
           style="fill:#9e1618;fill-opacity:0.99215686" /><polygon
           points="27.93,172.108 27.93,185.072 34.786,185.072 34.786,189.004 22.947,189.004 22.947,172.108 "
           transform="matrix(4.1325728,0,0,4.1325728,-251.11644,-315.87298)"
           id="polygon20"
           style="fill:#9e1618;fill-opacity:0.99215686" /><path
           d="m -72.700875,416.41892 -6.368294,25.01033 h 13.001074 l -6.63278,-25.01033 z m -32.779565,48.78089 22.53905,-69.82395 h 20.890156 l 22.526654,69.82395 h -20.518224 l -2.458881,-9.17844 H -82.94139 l -2.396892,9.17844 h -20.142158 z"
           id="path22"
           style="fill:#9e1618;fill-opacity:0.99215686" /><polygon
           points="60.174,182.756 60.174,189.004 55.196,189.004 55.196,182.845 49.54,172.108 55.105,172.108 57.728,177.828 60.35,172.108 65.834,172.108 "
           transform="matrix(4.1325728,0,0,4.1325728,-251.11644,-315.87298)"
           id="polygon24"
           style="fill:#9e1618;fill-opacity:0.99215686" /><path
           d="m 52.879748,436.01145 c 6.529465,0 11.360442,0.3678 11.360442,6.5088 0,5.21531 -3.847425,6.43028 -8.913959,6.43028 h -8.971816 v -12.93908 h 6.525333 z m 0.714935,-24.31193 c 4.322671,0 8.364327,0.0496 8.364327,5.49632 0,4.09952 -2.954789,6.09142 -7.062567,6.09142 h -8.542028 v -11.58774 h 7.240268 z m 2.764691,53.50029 c 16.315397,0 27.101412,-5.4178 27.101412,-21.04719 0,-7.54195 -3.690387,-14.07968 -10.513265,-16.01372 4.004463,-2.80602 8.227953,-8.03786 8.227953,-15.19134 0,-13.89371 -11.236466,-17.5717 -25.373997,-17.5717 H 25.77007 v 69.82395 h 30.589304 z"
           id="path26"
           style="fill:#9e1618;fill-opacity:0.99215686" /><path
           d="m 121.73254,410.61679 c 9.04621,-0.30995 12.59195,9.7942 12.59195,19.32804 0,11.50922 -3.54161,20.04298 -12.4597,20.04298 -9.84379,0 -12.23242,-11.11662 -12.23242,-20.04298 0,-8.8685 2.78535,-19.32804 12.10017,-19.32804 m 0.13225,-17.06753 c -19.47682,0 -32.833295,14.24085 -32.833295,36.14348 0,23.77056 13.174645,37.37499 32.833295,37.37499 18.64203,0 33.02338,-13.373 33.02338,-37.1229 0,-18.50979 -10.53806,-36.39557 -33.02338,-36.39557"
           id="path28"
           style="fill:#9e1618;fill-opacity:0.99215686" /><polygon
           points="109.35,182.756 109.35,189.004 104.373,189.004 104.373,182.845 98.707,172.108 104.281,172.108 106.904,177.828 109.511,172.108 115.016,172.108 "
           transform="matrix(4.1325728,0,0,4.1325728,-251.11644,-315.87298)"
           id="polygon30"
           style="fill:#9e1618;fill-opacity:0.99215686" /><polygon
           points="136.582,176.541 132.115,176.541 132.115,189.004 127.125,189.004 127.125,176.541 122.645,176.541 122.645,172.108 136.582,172.108 "
           transform="matrix(4.1325728,0,0,4.1325728,-251.11644,-315.87298)"
           id="polygon32"
           style="fill:#9e1618;fill-opacity:0.99215686" /><polygon
           points="147.484,189.004 142.486,189.004 137.292,172.108 142.3,172.108 144.974,183.347 147.741,172.108 152.757,172.108 "
           transform="matrix(4.1325728,0,0,4.1325728,-251.11644,-315.87298)"
           id="polygon34"
           style="fill:#9e1618;fill-opacity:0.99215686" /></g><g
         transform="matrix(1.01146,0,0,1.01146,0.81980354,-0.58152683)"
         id="g3955"><path
           d="m -224.59375,-276.6875 0,626.75 335.59375,0 C 50.841686,331.48781 -24.67453,292.07765 -41.5,240.6875 -54.773824,194.64651 -32.136571,135.39849 7.875,98.09375 65.173123,38.142515 139.76405,20.813825 219.75,14.15625 149.08714,-17.829864 73.142204,-39.205345 11.84375,-95.15625 -43.236077,-150.20406 -91.074495,-209.16131 -117.34375,-276.6875 l -107.25,0 z m 274.9375,0 c 96.68918,82.52024 179.50821,187.316637 242.65625,289.5 3.97554,-70.650466 1.41914,-143.94989 26.71875,-206.5625 8.60961,-28.88937 22.2702,-56.64757 39.4375,-82.9375 l -308.8125,0 z m 48.4375,364.53125 c -4.648545,0.0518 -9.275464,0.798175 -13.65625,2.25 -15.976527,5.335152 -25.3125,21.3449 -25.3125,38.65625 1.318291,14.64997 9.339953,29.32357 24.03125,35.96875 14.612778,6.6865 31.91998,2.65145 43.9375,-8.03125 10.6827,-10.65377 14.66304,-27.92312 10.6875,-42.59375 -6.27312,-17.692578 -23.08555,-26.435012 -39.6875,-26.25 z"
           transform="translate(7.5689962,12.214004)"
           id="rect6"
           style="fill:#9e1618;fill-opacity:0.99215686" /><path
           d="M -219.837,366.8859 H 373.3649 V -265.39774 H -219.837 V 366.8859 z m 587.66012,-5.55004 h -582.11007 v -621.18768 h 582.11007 v 621.18768 z"
           id="path38"
           style="fill:#9e1618;fill-opacity:0.99215686;fill-rule:evenodd" /></g></g></g></svg>